myVerilog_v3/pixelTop_tb.vcd
$date
	Wed Nov 17 22:52:36 2021
$end
$version
	Icarus Verilog
$end
$timescale
	1ps
$end
$scope module pixelTop_tb $end
$var wire 1 ! anaReset $end
$var wire 32 " pixData [31:0] $end
$var wire 4 # read [3:0] $end
$var wire 1 $ expose $end
$var wire 1 % erase $end
$var wire 1 & convert $end
$var wire 1 ' anaRamp $end
$var wire 1 ( anaBias1 $end
$var reg 1 ) clk $end
$var reg 8 * counter_data [7:0] $end
$var reg 32 + pixData_reg [31:0] $end
$var reg 32 , pixelDataOut [31:0] $end
$var reg 1 - reset $end
$var reg 1 . readIsHigh $end
$scope module ptop $end
$var wire 1 ( anaBias1 $end
$var wire 1 ' anaRamp $end
$var wire 1 ! anaReset $end
$var wire 1 ) clk $end
$var wire 32 / pixData [31:0] $end
$var wire 1 - reset $end
$var wire 4 0 read [3:0] $end
$var wire 1 $ expose $end
$var wire 1 % erase $end
$var wire 1 & convert $end
$scope module fsm $end
$var wire 1 ) clk $end
$var wire 1 - reset $end
$var reg 1 & convert $end
$var reg 1 % erase $end
$var reg 1 $ expose $end
$var reg 3 1 next_state [2:0] $end
$var reg 4 2 read [3:0] $end
$var reg 3 3 state [2:0] $end
$var integer 32 4 counter [31:0] $end
$var integer 32 5 row_count [31:0] $end
$upscope $end
$scope module pa $end
$var wire 1 ( anaBias1 $end
$var wire 1 ' anaRamp $end
$var wire 1 ! anaReset $end
$var wire 1 % erase $end
$var wire 1 $ expose $end
$var wire 32 6 pixData [31:0] $end
$var wire 4 7 read [3:0] $end
$scope begin genblk1[0] $end
$scope begin genblk2[0] $end
$scope module pix $end
$var wire 8 8 DATA [7:0] $end
$var wire 1 % ERASE $end
$var wire 1 $ EXPOSE $end
$var wire 1 ' RAMP $end
$var wire 1 9 READ $end
$var wire 1 ! RESET $end
$var wire 1 ( VBN1 $end
$var reg 1 : cmp $end
$var reg 8 ; p_data [7:0] $end
$var real 1 < adc $end
$var real 1 = lsb $end
$var real 1 > tmp $end
$var real 1 ? v_erase $end
$upscope $end
$upscope $end
$scope begin genblk2[1] $end
$scope module pix $end
$var wire 8 @ DATA [7:0] $end
$var wire 1 % ERASE $end
$var wire 1 $ EXPOSE $end
$var wire 1 ' RAMP $end
$var wire 1 A READ $end
$var wire 1 ! RESET $end
$var wire 1 ( VBN1 $end
$var reg 1 B cmp $end
$var reg 8 C p_data [7:0] $end
$var real 1 D adc $end
$var real 1 E lsb $end
$var real 1 F tmp $end
$var real 1 G v_erase $end
$upscope $end
$upscope $end
$scope begin genblk2[2] $end
$scope module pix $end
$var wire 8 H DATA [7:0] $end
$var wire 1 % ERASE $end
$var wire 1 $ EXPOSE $end
$var wire 1 ' RAMP $end
$var wire 1 I READ $end
$var wire 1 ! RESET $end
$var wire 1 ( VBN1 $end
$var reg 1 J cmp $end
$var reg 8 K p_data [7:0] $end
$var real 1 L adc $end
$var real 1 M lsb $end
$var real 1 N tmp $end
$var real 1 O v_erase $end
$upscope $end
$upscope $end
$scope begin genblk2[3] $end
$scope module pix $end
$var wire 8 P DATA [7:0] $end
$var wire 1 % ERASE $end
$var wire 1 $ EXPOSE $end
$var wire 1 ' RAMP $end
$var wire 1 Q READ $end
$var wire 1 ! RESET $end
$var wire 1 ( VBN1 $end
$var reg 1 R cmp $end
$var reg 8 S p_data [7:0] $end
$var real 1 T adc $end
$var real 1 U lsb $end
$var real 1 V tmp $end
$var real 1 W v_erase $end
$upscope $end
$upscope $end
$upscope $end
$scope begin genblk1[1] $end
$scope begin genblk2[0] $end
$scope module pix $end
$var wire 8 X DATA [7:0] $end
$var wire 1 % ERASE $end
$var wire 1 $ EXPOSE $end
$var wire 1 ' RAMP $end
$var wire 1 Y READ $end
$var wire 1 ! RESET $end
$var wire 1 ( VBN1 $end
$var reg 1 Z cmp $end
$var reg 8 [ p_data [7:0] $end
$var real 1 \ adc $end
$var real 1 ] lsb $end
$var real 1 ^ tmp $end
$var real 1 _ v_erase $end
$upscope $end
$upscope $end
$scope begin genblk2[1] $end
$scope module pix $end
$var wire 8 ` DATA [7:0] $end
$var wire 1 % ERASE $end
$var wire 1 $ EXPOSE $end
$var wire 1 ' RAMP $end
$var wire 1 a READ $end
$var wire 1 ! RESET $end
$var wire 1 ( VBN1 $end
$var reg 1 b cmp $end
$var reg 8 c p_data [7:0] $end
$var real 1 d adc $end
$var real 1 e lsb $end
$var real 1 f tmp $end
$var real 1 g v_erase $end
$upscope $end
$upscope $end
$scope begin genblk2[2] $end
$scope module pix $end
$var wire 8 h DATA [7:0] $end
$var wire 1 % ERASE $end
$var wire 1 $ EXPOSE $end
$var wire 1 ' RAMP $end
$var wire 1 i READ $end
$var wire 1 ! RESET $end
$var wire 1 ( VBN1 $end
$var reg 1 j cmp $end
$var reg 8 k p_data [7:0] $end
$var real 1 l adc $end
$var real 1 m lsb $end
$var real 1 n tmp $end
$var real 1 o v_erase $end
$upscope $end
$upscope $end
$scope begin genblk2[3] $end
$scope module pix $end
$var wire 8 p DATA [7:0] $end
$var wire 1 % ERASE $end
$var wire 1 $ EXPOSE $end
$var wire 1 ' RAMP $end
$var wire 1 q READ $end
$var wire 1 ! RESET $end
$var wire 1 ( VBN1 $end
$var reg 1 r cmp $end
$var reg 8 s p_data [7:0] $end
$var real 1 t adc $end
$var real 1 u lsb $end
$var real 1 v tmp $end
$var real 1 w v_erase $end
$upscope $end
$upscope $end
$upscope $end
$scope begin genblk1[2] $end
$scope begin genblk2[0] $end
$scope module pix $end
$var wire 8 x DATA [7:0] $end
$var wire 1 % ERASE $end
$var wire 1 $ EXPOSE $end
$var wire 1 ' RAMP $end
$var wire 1 y READ $end
$var wire 1 ! RESET $end
$var wire 1 ( VBN1 $end
$var reg 1 z cmp $end
$var reg 8 { p_data [7:0] $end
$var real 1 | adc $end
$var real 1 } lsb $end
$var real 1 ~ tmp $end
$var real 1 !" v_erase $end
$upscope $end
$upscope $end
$scope begin genblk2[1] $end
$scope module pix $end
$var wire 8 "" DATA [7:0] $end
$var wire 1 % ERASE $end
$var wire 1 $ EXPOSE $end
$var wire 1 ' RAMP $end
$var wire 1 #" READ $end
$var wire 1 ! RESET $end
$var wire 1 ( VBN1 $end
$var reg 1 $" cmp $end
$var reg 8 %" p_data [7:0] $end
$var real 1 &" adc $end
$var real 1 '" lsb $end
$var real 1 (" tmp $end
$var real 1 )" v_erase $end
$upscope $end
$upscope $end
$scope begin genblk2[2] $end
$scope module pix $end
$var wire 8 *" DATA [7:0] $end
$var wire 1 % ERASE $end
$var wire 1 $ EXPOSE $end
$var wire 1 ' RAMP $end
$var wire 1 +" READ $end
$var wire 1 ! RESET $end
$var wire 1 ( VBN1 $end
$var reg 1 ," cmp $end
$var reg 8 -" p_data [7:0] $end
$var real 1 ." adc $end
$var real 1 /" lsb $end
$var real 1 0" tmp $end
$var real 1 1" v_erase $end
$upscope $end
$upscope $end
$scope begin genblk2[3] $end
$scope module pix $end
$var wire 8 2" DATA [7:0] $end
$var wire 1 % ERASE $end
$var wire 1 $ EXPOSE $end
$var wire 1 ' RAMP $end
$var wire 1 3" READ $end
$var wire 1 ! RESET $end
$var wire 1 ( VBN1 $end
$var reg 1 4" cmp $end
$var reg 8 5" p_data [7:0] $end
$var real 1 6" adc $end
$var real 1 7" lsb $end
$var real 1 8" tmp $end
$var real 1 9" v_erase $end
$upscope $end
$upscope $end
$upscope $end
$scope begin genblk1[3] $end
$scope begin genblk2[0] $end
$scope module pix $end
$var wire 8 :" DATA [7:0] $end
$var wire 1 % ERASE $end
$var wire 1 $ EXPOSE $end
$var wire 1 ' RAMP $end
$var wire 1 ;" READ $end
$var wire 1 ! RESET $end
$var wire 1 ( VBN1 $end
$var reg 1 <" cmp $end
$var reg 8 =" p_data [7:0] $end
$var real 1 >" adc $end
$var real 1 ?" lsb $end
$var real 1 @" tmp $end
$var real 1 A" v_erase $end
$upscope $end
$upscope $end
$scope begin genblk2[1] $end
$scope module pix $end
$var wire 8 B" DATA [7:0] $end
$var wire 1 % ERASE $end
$var wire 1 $ EXPOSE $end
$var wire 1 ' RAMP $end
$var wire 1 C" READ $end
$var wire 1 ! RESET $end
$var wire 1 ( VBN1 $end
$var reg 1 D" cmp $end
$var reg 8 E" p_data [7:0] $end
$var real 1 F" adc $end
$var real 1 G" lsb $end
$var real 1 H" tmp $end
$var real 1 I" v_erase $end
$upscope $end
$upscope $end
$scope begin genblk2[2] $end
$scope module pix $end
$var wire 8 J" DATA [7:0] $end
$var wire 1 % ERASE $end
$var wire 1 $ EXPOSE $end
$var wire 1 ' RAMP $end
$var wire 1 K" READ $end
$var wire 1 ! RESET $end
$var wire 1 ( VBN1 $end
$var reg 1 L" cmp $end
$var reg 8 M" p_data [7:0] $end
$var real 1 N" adc $end
$var real 1 O" lsb $end
$var real 1 P" tmp $end
$var real 1 Q" v_erase $end
$upscope $end
$upscope $end
$scope begin genblk2[3] $end
$scope module pix $end
$var wire 8 R" DATA [7:0] $end
$var wire 1 % ERASE $end
$var wire 1 $ EXPOSE $end
$var wire 1 ' RAMP $end
$var wire 1 S" READ $end
$var wire 1 ! RESET $end
$var wire 1 ( VBN1 $end
$var reg 1 T" cmp $end
$var reg 8 U" p_data [7:0] $end
$var real 1 V" adc $end
$var real 1 W" lsb $end
$var real 1 X" tmp $end
$var real 1 Y" v_erase $end
$upscope $end
$upscope $end
$upscope $end
$upscope $end
$upscope $end
$scope begin $ivl_for_loop0 $end
$var integer 32 Z" i [31:0] $end
$scope begin $ivl_for_loop1 $end
$var integer 32 [" j [31:0] $end
$upscope $end
$upscope $end
$scope begin $ivl_for_loop2 $end
$var integer 32 \" i [31:0] $end
$upscope $end
$scope begin $ivl_for_loop3 $end
$var integer 32 ]" i [31:0] $end
$scope begin $ivl_for_loop4 $end
$var integer 32 ^" j [31:0] $end
$upscope $end
$upscope $end
$upscope $end
$enddefinitions $end
#200000
$dumpvars
b0 ^"
b100 ]"
b100 \"
b100 ["
b100 Z"
r1.2 Y"
r0 X"
r0.0046875 W"
r0 V"
bx U"
xT"
xS"
bx R"
r1.2 Q"
r0 P"
r0.0046875 O"
r0 N"
bx M"
xL"
xK"
bx J"
r1.2 I"
r0 H"
r0.0046875 G"
r0 F"
bx E"
xD"
xC"
bx B"
r1.2 A"
r0 @"
r0.0046875 ?"
r0 >"
bx ="
x<"
x;"
bx :"
r1.2 9"
r0 8"
r0.0046875 7"
r0 6"
bx 5"
x4"
x3"
bx 2"
r1.2 1"
r0 0"
r0.0046875 /"
r0 ."
bx -"
x,"
x+"
bx *"
r1.2 )"
r0 ("
r0.0046875 '"
r0 &"
bx %"
x$"
x#"
bx ""
r1.2 !"
r0 ~
r0.0046875 }
r0 |
bx {
xz
xy
bx x
r1.2 w
r0 v
r0.0046875 u
r0 t
bx s
xr
xq
bx p
r1.2 o
r0 n
r0.0046875 m
r0 l
bx k
xj
xi
bx h
r1.2 g
r0 f
r0.0046875 e
r0 d
bx c
xb
xa
bx `
r1.2 _
r0 ^
r0.0046875 ]
r0 \
bx [
xZ
xY
bx X
r1.2 W
r0 V
r0.0046875 U
r0 T
bx S
xR
xQ
bx P
r1.2 O
r0 N
r0.0046875 M
r0 L
bx K
xJ
xI
bx H
r1.2 G
r0 F
r0.0046875 E
r0 D
bx C
xB
xA
bx @
r1.2 ?
r0 >
r0.0046875 =
r0 <
bx ;
x:
x9
bx 8
bx 7
bx 6
b0 5
b0 4
b0 3
bx 2
b0 1
bx 0
bx /
0.
0-
b0 ,
b0 +
b0 *
1)
x(
0'
0&
x%
x$
bx #
bx "
1!
$end
#400000
b0 8
b0 @
b0 H
b0 P
b0 X
b0 `
b0 h
b0 p
b0 x
b0 ""
b0 *"
b0 2"
b0 :"
b0 B"
b0 J"
b0 R"
b0 "
b0 /
b0 6
09
0A
0I
0Q
0Y
0a
0i
0q
0y
0#"
0+"
03"
0;"
0C"
0K"
0S"
1T"
b0 U"
r1.2 X"
1L"
b0 M"
r1.2 P"
1D"
b0 E"
r1.2 H"
1<"
b0 ="
r1.2 @"
14"
b0 5"
r1.2 8"
1,"
b0 -"
r1.2 0"
1$"
b0 %"
r1.2 ("
1z
b0 {
r1.2 ~
1r
b0 s
r1.2 v
1j
b0 k
r1.2 n
1b
b0 c
r1.2 f
1Z
b0 [
r1.2 ^
1R
b0 S
r1.2 V
1J
b0 K
r1.2 N
1B
b0 C
r1.2 F
1:
b0 ;
r1.2 >
0$
b0 #
b0 0
b0 2
b0 7
1%
0(
0)
#600000
b100 ]"
b1 4
b100 ["
b100 Z"
1)
#800000
0)
#1000000
b100 ]"
b10 4
b100 ["
b100 Z"
1)
#1200000
0)
#1400000
b100 ]"
b11 4
b100 ["
b100 Z"
1)
#1600000
0)
#1800000
b100 ]"
b100 4
b100 ["
b100 Z"
1)
#2000000
0)
#2200000
b100 ]"
b101 4
b100 ["
b100 Z"
1)
#2400000
0)
#2600000
b100 3
b1 1
b100 ]"
b110 4
b100 ["
b100 Z"
1)
#2800000
0%
0)
#3000000
b1 3
b100 ]"
b0 4
b100 ["
b100 Z"
1)
#3200000
1$
0)
#3400000
r1.19765625 X"
r1.19765625 P"
r1.19765625 H"
r1.19765625 @"
r1.19765625 8"
r1.19765625 0"
r1.19765625 ("
r1.19765625 ~
r1.19765625 v
r1.19765625 n
r1.19765625 f
r1.19765625 ^
r1.19765625 V
r1.19765625 N
r1.19765625 F
r1.19765625 >
1(
b100 ]"
b1 4
b100 ["
b100 Z"
1)
#3600000
0(
0)
#3800000
r1.1953125 >
r1.1953125 F
r1.1953125 N
r1.1953125 V
r1.1953125 ^
r1.1953125 f
r1.1953125 n
r1.1953125 v
r1.1953125 ~
r1.1953125 ("
r1.1953125 0"
r1.1953125 8"
r1.1953125 @"
r1.1953125 H"
r1.1953125 P"
r1.1953125 X"
1(
b100 ]"
b10 4
b100 ["
b100 Z"
1)
#4000000
0(
0)
#4200000
r1.19296875 X"
r1.19296875 P"
r1.19296875 H"
r1.19296875 @"
r1.19296875 8"
r1.19296875 0"
r1.19296875 ("
r1.19296875 ~
r1.19296875 v
r1.19296875 n
r1.19296875 f
r1.19296875 ^
r1.19296875 V
r1.19296875 N
r1.19296875 F
r1.19296875 >
1(
b100 ]"
b11 4
b100 ["
b100 Z"
1)
#4400000
0(
0)
#4600000
r1.190625 >
r1.190625 F
r1.190625 N
r1.190625 V
r1.190625 ^
r1.190625 f
r1.190625 n
r1.190625 v
r1.190625 ~
r1.190625 ("
r1.190625 0"
r1.190625 8"
r1.190625 @"
r1.190625 H"
r1.190625 P"
r1.190625 X"
1(
b100 ]"
b100 4
b100 ["
b100 Z"
1)
#4800000
0(
0)
#5000000
r1.18828125 X"
r1.18828125 P"
r1.18828125 H"
r1.18828125 @"
r1.18828125 8"
r1.18828125 0"
r1.18828125 ("
r1.18828125 ~
r1.18828125 v
r1.18828125 n
r1.18828125 f
r1.18828125 ^
r1.18828125 V
r1.18828125 N
r1.18828125 F
r1.18828125 >
1(
b100 ]"
b101 4
b100 ["
b100 Z"
1)
#5200000
0(
0)
#5400000
r1.185937499999999 >
r1.185937499999999 F
r1.185937499999999 N
r1.185937499999999 V
r1.185937499999999 ^
r1.185937499999999 f
r1.185937499999999 n
r1.185937499999999 v
r1.185937499999999 ~
r1.185937499999999 ("
r1.185937499999999 0"
r1.185937499999999 8"
r1.185937499999999 @"
r1.185937499999999 H"
r1.185937499999999 P"
r1.185937499999999 X"
1(
b100 ]"
b110 4
b100 ["
b100 Z"
1)
#5600000
0(
0)
#5800000
r1.183593749999999 X"
r1.183593749999999 P"
r1.183593749999999 H"
r1.183593749999999 @"
r1.183593749999999 8"
r1.183593749999999 0"
r1.183593749999999 ("
r1.183593749999999 ~
r1.183593749999999 v
r1.183593749999999 n
r1.183593749999999 f
r1.183593749999999 ^
r1.183593749999999 V
r1.183593749999999 N
r1.183593749999999 F
r1.183593749999999 >
1(
b100 ]"
b111 4
b100 ["
b100 Z"
1)
#6000000
0(
0)
#6200000
r1.181249999999999 >
r1.181249999999999 F
r1.181249999999999 N
r1.181249999999999 V
r1.181249999999999 ^
r1.181249999999999 f
r1.181249999999999 n
r1.181249999999999 v
r1.181249999999999 ~
r1.181249999999999 ("
r1.181249999999999 0"
r1.181249999999999 8"
r1.181249999999999 @"
r1.181249999999999 H"
r1.181249999999999 P"
r1.181249999999999 X"
1(
b100 ]"
b1000 4
b100 ["
b100 Z"
1)
#6400000
0(
0)
#6600000
r1.178906249999999 X"
r1.178906249999999 P"
r1.178906249999999 H"
r1.178906249999999 @"
r1.178906249999999 8"
r1.178906249999999 0"
r1.178906249999999 ("
r1.178906249999999 ~
r1.178906249999999 v
r1.178906249999999 n
r1.178906249999999 f
r1.178906249999999 ^
r1.178906249999999 V
r1.178906249999999 N
r1.178906249999999 F
r1.178906249999999 >
1(
b100 ]"
b1001 4
b100 ["
b100 Z"
1)
#6800000
0(
0)
#7000000
r1.176562499999999 >
r1.176562499999999 F
r1.176562499999999 N
r1.176562499999999 V
r1.176562499999999 ^
r1.176562499999999 f
r1.176562499999999 n
r1.176562499999999 v
r1.176562499999999 ~
r1.176562499999999 ("
r1.176562499999999 0"
r1.176562499999999 8"
r1.176562499999999 @"
r1.176562499999999 H"
r1.176562499999999 P"
r1.176562499999999 X"
1(
b100 ]"
b1010 4
b100 ["
b100 Z"
1)
#7200000
0(
0)
#7400000
r1.174218749999999 X"
r1.174218749999999 P"
r1.174218749999999 H"
r1.174218749999999 @"
r1.174218749999999 8"
r1.174218749999999 0"
r1.174218749999999 ("
r1.174218749999999 ~
r1.174218749999999 v
r1.174218749999999 n
r1.174218749999999 f
r1.174218749999999 ^
r1.174218749999999 V
r1.174218749999999 N
r1.174218749999999 F
r1.174218749999999 >
1(
b100 ]"
b1011 4
b100 ["
b100 Z"
1)
#7600000
0(
0)
#7800000
r1.171874999999999 >
r1.171874999999999 F
r1.171874999999999 N
r1.171874999999999 V
r1.171874999999999 ^
r1.171874999999999 f
r1.171874999999999 n
r1.171874999999999 v
r1.171874999999999 ~
r1.171874999999999 ("
r1.171874999999999 0"
r1.171874999999999 8"
r1.171874999999999 @"
r1.171874999999999 H"
r1.171874999999999 P"
r1.171874999999999 X"
1(
b100 ]"
b1100 4
b100 ["
b100 Z"
1)
#8000000
0(
0)
#8200000
r1.169531249999999 X"
r1.169531249999999 P"
r1.169531249999999 H"
r1.169531249999999 @"
r1.169531249999999 8"
r1.169531249999999 0"
r1.169531249999999 ("
r1.169531249999999 ~
r1.169531249999999 v
r1.169531249999999 n
r1.169531249999999 f
r1.169531249999999 ^
r1.169531249999999 V
r1.169531249999999 N
r1.169531249999999 F
r1.169531249999999 >
1(
b100 ]"
b1101 4
b100 ["
b100 Z"
1)
#8400000
0(
0)
#8600000
r1.167187499999999 >
r1.167187499999999 F
r1.167187499999999 N
r1.167187499999999 V
r1.167187499999999 ^
r1.167187499999999 f
r1.167187499999999 n
r1.167187499999999 v
r1.167187499999999 ~
r1.167187499999999 ("
r1.167187499999999 0"
r1.167187499999999 8"
r1.167187499999999 @"
r1.167187499999999 H"
r1.167187499999999 P"
r1.167187499999999 X"
1(
b100 ]"
b1110 4
b100 ["
b100 Z"
1)
#8800000
0(
0)
#9000000
r1.164843749999999 X"
r1.164843749999999 P"
r1.164843749999999 H"
r1.164843749999999 @"
r1.164843749999999 8"
r1.164843749999999 0"
r1.164843749999999 ("
r1.164843749999999 ~
r1.164843749999999 v
r1.164843749999999 n
r1.164843749999999 f
r1.164843749999999 ^
r1.164843749999999 V
r1.164843749999999 N
r1.164843749999999 F
r1.164843749999999 >
1(
b100 ]"
b1111 4
b100 ["
b100 Z"
1)
#9200000
0(
0)
#9400000
r1.162499999999999 >
r1.162499999999999 F
r1.162499999999999 N
r1.162499999999999 V
r1.162499999999999 ^
r1.162499999999999 f
r1.162499999999999 n
r1.162499999999999 v
r1.162499999999999 ~
r1.162499999999999 ("
r1.162499999999999 0"
r1.162499999999999 8"
r1.162499999999999 @"
r1.162499999999999 H"
r1.162499999999999 P"
r1.162499999999999 X"
1(
b100 ]"
b10000 4
b100 ["
b100 Z"
1)
#9600000
0(
0)
#9800000
r1.160156249999998 X"
r1.160156249999998 P"
r1.160156249999998 H"
r1.160156249999998 @"
r1.160156249999998 8"
r1.160156249999998 0"
r1.160156249999998 ("
r1.160156249999998 ~
r1.160156249999998 v
r1.160156249999998 n
r1.160156249999998 f
r1.160156249999998 ^
r1.160156249999998 V
r1.160156249999998 N
r1.160156249999998 F
r1.160156249999998 >
1(
b100 ]"
b10001 4
b100 ["
b100 Z"
1)
#10000000
0(
0)
#10200000
r1.157812499999998 >
r1.157812499999998 F
r1.157812499999998 N
r1.157812499999998 V
r1.157812499999998 ^
r1.157812499999998 f
r1.157812499999998 n
r1.157812499999998 v
r1.157812499999998 ~
r1.157812499999998 ("
r1.157812499999998 0"
r1.157812499999998 8"
r1.157812499999998 @"
r1.157812499999998 H"
r1.157812499999998 P"
r1.157812499999998 X"
1(
b100 ]"
b10010 4
b100 ["
b100 Z"
1)
#10400000
0(
0)
#10600000
r1.155468749999998 X"
r1.155468749999998 P"
r1.155468749999998 H"
r1.155468749999998 @"
r1.155468749999998 8"
r1.155468749999998 0"
r1.155468749999998 ("
r1.155468749999998 ~
r1.155468749999998 v
r1.155468749999998 n
r1.155468749999998 f
r1.155468749999998 ^
r1.155468749999998 V
r1.155468749999998 N
r1.155468749999998 F
r1.155468749999998 >
1(
b100 ]"
b10011 4
b100 ["
b100 Z"
1)
#10800000
0(
0)
#11000000
r1.153124999999998 >
r1.153124999999998 F
r1.153124999999998 N
r1.153124999999998 V
r1.153124999999998 ^
r1.153124999999998 f
r1.153124999999998 n
r1.153124999999998 v
r1.153124999999998 ~
r1.153124999999998 ("
r1.153124999999998 0"
r1.153124999999998 8"
r1.153124999999998 @"
r1.153124999999998 H"
r1.153124999999998 P"
r1.153124999999998 X"
1(
b100 ]"
b10100 4
b100 ["
b100 Z"
1)
#11200000
0(
0)
#11400000
r1.150781249999998 X"
r1.150781249999998 P"
r1.150781249999998 H"
r1.150781249999998 @"
r1.150781249999998 8"
r1.150781249999998 0"
r1.150781249999998 ("
r1.150781249999998 ~
r1.150781249999998 v
r1.150781249999998 n
r1.150781249999998 f
r1.150781249999998 ^
r1.150781249999998 V
r1.150781249999998 N
r1.150781249999998 F
r1.150781249999998 >
1(
b100 ]"
b10101 4
b100 ["
b100 Z"
1)
#11600000
0(
0)
#11800000
r1.148437499999998 >
r1.148437499999998 F
r1.148437499999998 N
r1.148437499999998 V
r1.148437499999998 ^
r1.148437499999998 f
r1.148437499999998 n
r1.148437499999998 v
r1.148437499999998 ~
r1.148437499999998 ("
r1.148437499999998 0"
r1.148437499999998 8"
r1.148437499999998 @"
r1.148437499999998 H"
r1.148437499999998 P"
r1.148437499999998 X"
1(
b100 ]"
b10110 4
b100 ["
b100 Z"
1)
#12000000
0(
0)
#12200000
r1.146093749999998 X"
r1.146093749999998 P"
r1.146093749999998 H"
r1.146093749999998 @"
r1.146093749999998 8"
r1.146093749999998 0"
r1.146093749999998 ("
r1.146093749999998 ~
r1.146093749999998 v
r1.146093749999998 n
r1.146093749999998 f
r1.146093749999998 ^
r1.146093749999998 V
r1.146093749999998 N
r1.146093749999998 F
r1.146093749999998 >
1(
b100 ]"
b10111 4
b100 ["
b100 Z"
1)
#12400000
0(
0)
#12600000
r1.143749999999998 >
r1.143749999999998 F
r1.143749999999998 N
r1.143749999999998 V
r1.143749999999998 ^
r1.143749999999998 f
r1.143749999999998 n
r1.143749999999998 v
r1.143749999999998 ~
r1.143749999999998 ("
r1.143749999999998 0"
r1.143749999999998 8"
r1.143749999999998 @"
r1.143749999999998 H"
r1.143749999999998 P"
r1.143749999999998 X"
1(
b100 ]"
b11000 4
b100 ["
b100 Z"
1)
#12800000
0(
0)
#13000000
r1.141406249999998 X"
r1.141406249999998 P"
r1.141406249999998 H"
r1.141406249999998 @"
r1.141406249999998 8"
r1.141406249999998 0"
r1.141406249999998 ("
r1.141406249999998 ~
r1.141406249999998 v
r1.141406249999998 n
r1.141406249999998 f
r1.141406249999998 ^
r1.141406249999998 V
r1.141406249999998 N
r1.141406249999998 F
r1.141406249999998 >
1(
b100 ]"
b11001 4
b100 ["
b100 Z"
1)
#13200000
0(
0)
#13400000
r1.139062499999998 >
r1.139062499999998 F
r1.139062499999998 N
r1.139062499999998 V
r1.139062499999998 ^
r1.139062499999998 f
r1.139062499999998 n
r1.139062499999998 v
r1.139062499999998 ~
r1.139062499999998 ("
r1.139062499999998 0"
r1.139062499999998 8"
r1.139062499999998 @"
r1.139062499999998 H"
r1.139062499999998 P"
r1.139062499999998 X"
1(
b100 ]"
b11010 4
b100 ["
b100 Z"
1)
#13600000
0(
0)
#13800000
r1.136718749999998 X"
r1.136718749999998 P"
r1.136718749999998 H"
r1.136718749999998 @"
r1.136718749999998 8"
r1.136718749999998 0"
r1.136718749999998 ("
r1.136718749999998 ~
r1.136718749999998 v
r1.136718749999998 n
r1.136718749999998 f
r1.136718749999998 ^
r1.136718749999998 V
r1.136718749999998 N
r1.136718749999998 F
r1.136718749999998 >
1(
b100 ]"
b11011 4
b100 ["
b100 Z"
1)
#14000000
0(
0)
#14200000
r1.134374999999997 >
r1.134374999999997 F
r1.134374999999997 N
r1.134374999999997 V
r1.134374999999997 ^
r1.134374999999997 f
r1.134374999999997 n
r1.134374999999997 v
r1.134374999999997 ~
r1.134374999999997 ("
r1.134374999999997 0"
r1.134374999999997 8"
r1.134374999999997 @"
r1.134374999999997 H"
r1.134374999999997 P"
r1.134374999999997 X"
1(
b100 ]"
b11100 4
b100 ["
b100 Z"
1)
#14400000
0(
0)
#14600000
r1.132031249999997 X"
r1.132031249999997 P"
r1.132031249999997 H"
r1.132031249999997 @"
r1.132031249999997 8"
r1.132031249999997 0"
r1.132031249999997 ("
r1.132031249999997 ~
r1.132031249999997 v
r1.132031249999997 n
r1.132031249999997 f
r1.132031249999997 ^
r1.132031249999997 V
r1.132031249999997 N
r1.132031249999997 F
r1.132031249999997 >
1(
b100 ]"
b11101 4
b100 ["
b100 Z"
1)
#14800000
0(
0)
#15000000
r1.129687499999997 >
r1.129687499999997 F
r1.129687499999997 N
r1.129687499999997 V
r1.129687499999997 ^
r1.129687499999997 f
r1.129687499999997 n
r1.129687499999997 v
r1.129687499999997 ~
r1.129687499999997 ("
r1.129687499999997 0"
r1.129687499999997 8"
r1.129687499999997 @"
r1.129687499999997 H"
r1.129687499999997 P"
r1.129687499999997 X"
1(
b100 ]"
b11110 4
b100 ["
b100 Z"
1)
#15200000
0(
0)
#15400000
r1.127343749999997 X"
r1.127343749999997 P"
r1.127343749999997 H"
r1.127343749999997 @"
r1.127343749999997 8"
r1.127343749999997 0"
r1.127343749999997 ("
r1.127343749999997 ~
r1.127343749999997 v
r1.127343749999997 n
r1.127343749999997 f
r1.127343749999997 ^
r1.127343749999997 V
r1.127343749999997 N
r1.127343749999997 F
r1.127343749999997 >
1(
b100 ]"
b11111 4
b100 ["
b100 Z"
1)
#15600000
0(
0)
#15800000
r1.124999999999997 >
r1.124999999999997 F
r1.124999999999997 N
r1.124999999999997 V
r1.124999999999997 ^
r1.124999999999997 f
r1.124999999999997 n
r1.124999999999997 v
r1.124999999999997 ~
r1.124999999999997 ("
r1.124999999999997 0"
r1.124999999999997 8"
r1.124999999999997 @"
r1.124999999999997 H"
r1.124999999999997 P"
r1.124999999999997 X"
1(
b100 ]"
b100000 4
b100 ["
b100 Z"
1)
#16000000
0(
0)
#16200000
r1.122656249999997 X"
r1.122656249999997 P"
r1.122656249999997 H"
r1.122656249999997 @"
r1.122656249999997 8"
r1.122656249999997 0"
r1.122656249999997 ("
r1.122656249999997 ~
r1.122656249999997 v
r1.122656249999997 n
r1.122656249999997 f
r1.122656249999997 ^
r1.122656249999997 V
r1.122656249999997 N
r1.122656249999997 F
r1.122656249999997 >
1(
b100 ]"
b100001 4
b100 ["
b100 Z"
1)
#16400000
0(
0)
#16600000
r1.120312499999997 >
r1.120312499999997 F
r1.120312499999997 N
r1.120312499999997 V
r1.120312499999997 ^
r1.120312499999997 f
r1.120312499999997 n
r1.120312499999997 v
r1.120312499999997 ~
r1.120312499999997 ("
r1.120312499999997 0"
r1.120312499999997 8"
r1.120312499999997 @"
r1.120312499999997 H"
r1.120312499999997 P"
r1.120312499999997 X"
1(
b100 ]"
b100010 4
b100 ["
b100 Z"
1)
#16800000
0(
0)
#17000000
r1.117968749999997 X"
r1.117968749999997 P"
r1.117968749999997 H"
r1.117968749999997 @"
r1.117968749999997 8"
r1.117968749999997 0"
r1.117968749999997 ("
r1.117968749999997 ~
r1.117968749999997 v
r1.117968749999997 n
r1.117968749999997 f
r1.117968749999997 ^
r1.117968749999997 V
r1.117968749999997 N
r1.117968749999997 F
r1.117968749999997 >
1(
b100 ]"
b100011 4
b100 ["
b100 Z"
1)
#17200000
0(
0)
#17400000
r1.115624999999997 >
r1.115624999999997 F
r1.115624999999997 N
r1.115624999999997 V
r1.115624999999997 ^
r1.115624999999997 f
r1.115624999999997 n
r1.115624999999997 v
r1.115624999999997 ~
r1.115624999999997 ("
r1.115624999999997 0"
r1.115624999999997 8"
r1.115624999999997 @"
r1.115624999999997 H"
r1.115624999999997 P"
r1.115624999999997 X"
1(
b100 ]"
b100100 4
b100 ["
b100 Z"
1)
#17600000
0(
0)
