myVerilog_v3/pixelState_tb.vcd
$date
	Sun Nov 14 20:06:48 2021
$end
$version
	Icarus Verilog
$end
$timescale
	1ps
$end
$scope module pixelState_tb $end
$var wire 1 ! anaReset $end
$var wire 16 " pixData [15:0] $end
$var wire 2 # read [1:0] $end
$var wire 1 $ expose $end
$var wire 1 % erase $end
$var wire 1 & convert $end
$var wire 1 ' anaRamp $end
$var wire 1 ( anaBias1 $end
$var reg 1 ) clk $end
$var reg 8 * data [7:0] $end
$var reg 16 + pixelDataOut [15:0] $end
$var reg 1 , reset $end
$scope module fsm $end
$var wire 1 ) clk $end
$var wire 1 , reset $end
$var reg 1 & convert $end
$var reg 1 % erase $end
$var reg 1 $ expose $end
$var reg 3 - next_state [2:0] $end
$var reg 2 . read [1:0] $end
$var reg 3 / state [2:0] $end
$var integer 32 0 counter [31:0] $end
$var integer 32 1 row_count [31:0] $end
$upscope $end
$scope module pa $end
$var wire 1 ( anaBias1 $end
$var wire 1 ' anaRamp $end
$var wire 1 ! anaReset $end
$var wire 1 % erase $end
$var wire 1 $ expose $end
$var wire 16 2 pixData [15:0] $end
$var wire 2 3 read [1:0] $end
$scope begin genblk1[0] $end
$scope begin genblk2[0] $end
$scope module pix $end
$var wire 8 4 DATA [7:0] $end
$var wire 1 % ERASE $end
$var wire 1 $ EXPOSE $end
$var wire 1 ' RAMP $end
$var wire 1 5 READ $end
$var wire 1 ! RESET $end
$var wire 1 ( VBN1 $end
$var reg 1 6 cmp $end
$var reg 8 7 p_data [7:0] $end
$var real 1 8 adc $end
$var real 1 9 lsb $end
$var real 1 : tmp $end
$var real 1 ; v_erase $end
$upscope $end
$upscope $end
$scope begin genblk2[1] $end
$scope module pix $end
$var wire 8 < DATA [7:0] $end
$var wire 1 % ERASE $end
$var wire 1 $ EXPOSE $end
$var wire 1 ' RAMP $end
$var wire 1 = READ $end
$var wire 1 ! RESET $end
$var wire 1 ( VBN1 $end
$var reg 1 > cmp $end
$var reg 8 ? p_data [7:0] $end
$var real 1 @ adc $end
$var real 1 A lsb $end
$var real 1 B tmp $end
$var real 1 C v_erase $end
$upscope $end
$upscope $end
$upscope $end
$scope begin genblk1[1] $end
$scope begin genblk2[0] $end
$scope module pix $end
$var wire 8 D DATA [7:0] $end
$var wire 1 % ERASE $end
$var wire 1 $ EXPOSE $end
$var wire 1 ' RAMP $end
$var wire 1 E READ $end
$var wire 1 ! RESET $end
$var wire 1 ( VBN1 $end
$var reg 1 F cmp $end
$var reg 8 G p_data [7:0] $end
$var real 1 H adc $end
$var real 1 I lsb $end
$var real 1 J tmp $end
$var real 1 K v_erase $end
$upscope $end
$upscope $end
$scope begin genblk2[1] $end
$scope module pix $end
$var wire 8 L DATA [7:0] $end
$var wire 1 % ERASE $end
$var wire 1 $ EXPOSE $end
$var wire 1 ' RAMP $end
$var wire 1 M READ $end
$var wire 1 ! RESET $end
$var wire 1 ( VBN1 $end
$var reg 1 N cmp $end
$var reg 8 O p_data [7:0] $end
$var real 1 P adc $end
$var real 1 Q lsb $end
$var real 1 R tmp $end
$var real 1 S v_erase $end
$upscope $end
$upscope $end
$upscope $end
$upscope $end
$scope begin $ivl_for_loop0 $end
$var integer 32 T i [31:0] $end
$scope begin $ivl_for_loop1 $end
$var integer 32 U j [31:0] $end
$upscope $end
$upscope $end
$upscope $end
$enddefinitions $end
#500000
$dumpvars
bx U
b10 T
r1.2 S
r0 R
r0.004705882352941176 Q
r0 P
bx O
xN
xM
bx L
r1.2 K
r0 J
r0.004705882352941176 I
r0 H
bx G
xF
xE
bx D
r1.2 C
r0 B
r0.004705882352941176 A
r0 @
bx ?
x>
x=
bx <
r1.2 ;
r0 :
r0.004705882352941176 9
r0 8
bx 7
x6
x5
bx 4
bx 3
bx 2
b0 1
b0 0
b0 /
bx .
b0 -
0,
b0 +
b0 *
1)
x(
0'
0&
x%
x$
bx #
bx "
1!
$end
#1000000
b0 4
b0 <
b0 D
b0 L
b0 "
b0 2
05
0=
0E
0M
0N
b0 O
r1.2 R
0F
b0 G
r1.2 J
0>
b0 ?
r1.2 B
06
b0 7
r1.2 :
0$
b0 #
b0 .
b0 3
1%
0(
0)
#1500000
b10 T
b1 0
1)
#2000000
0)
#2500000
b10 T
b10 0
1)
#3000000
0)
#3500000
b10 T
b11 0
1)
#4000000
0)
#4500000
b10 T
b100 0
1)
#5000000
0)
#5500000
b10 T
b101 0
1)
#6000000
0)
#6500000
b100 /
b1 -
b10 T
b110 0
1)
#7000000
0%
0)
#7500000
b1 /
b10 T
b0 0
1)
#8000000
1$
0)
#8500000
r1.199529411764706 R
r1.199529411764706 J
r1.199529411764706 B
r1.199529411764706 :
1(
b10 T
b1 0
1)
#9000000
0(
0)
#9500000
r1.199058823529412 :
r1.199058823529412 B
r1.199058823529412 J
r1.199058823529412 R
1(
b10 T
b10 0
1)
#10000000
0(
0)
#10500000
r1.198588235294117 R
r1.198588235294117 J
r1.198588235294117 B
r1.198588235294117 :
1(
b10 T
b11 0
1)
#11000000
0(
0)
#11500000
r1.198117647058823 :
r1.198117647058823 B
r1.198117647058823 J
r1.198117647058823 R
1(
b10 T
b100 0
1)
#12000000
0(
0)
#12500000
r1.197647058823529 R
r1.197647058823529 J
r1.197647058823529 B
r1.197647058823529 :
1(
b10 T
b101 0
1)
#13000000
0(
0)
#13500000
r1.197176470588235 :
r1.197176470588235 B
r1.197176470588235 J
r1.197176470588235 R
1(
b10 T
b110 0
1)
#14000000
0(
0)
#14500000
r1.19670588235294 R
r1.19670588235294 J
r1.19670588235294 B
r1.19670588235294 :
1(
b10 T
b111 0
1)
#15000000
0(
0)
#15500000
r1.196235294117646 :
r1.196235294117646 B
r1.196235294117646 J
r1.196235294117646 R
1(
b10 T
b1000 0
1)
#16000000
0(
0)
#16500000
r1.195764705882352 R
r1.195764705882352 J
r1.195764705882352 B
r1.195764705882352 :
1(
b10 T
b1001 0
1)
#17000000
0(
0)
#17500000
r1.195294117647058 :
r1.195294117647058 B
r1.195294117647058 J
r1.195294117647058 R
1(
b10 T
b1010 0
1)
#18000000
0(
0)
#18500000
r1.194823529411764 R
r1.194823529411764 J
r1.194823529411764 B
r1.194823529411764 :
1(
b10 T
b1011 0
1)
#19000000
0(
0)
#19500000
r1.194352941176469 :
r1.194352941176469 B
r1.194352941176469 J
r1.194352941176469 R
1(
b10 T
b1100 0
1)
#20000000
0(
0)
#20500000
r1.193882352941175 R
r1.193882352941175 J
r1.193882352941175 B
r1.193882352941175 :
1(
b10 T
b1101 0
1)
#21000000
0(
0)
#21500000
r1.193411764705881 :
r1.193411764705881 B
r1.193411764705881 J
r1.193411764705881 R
1(
b10 T
b1110 0
1)
#22000000
0(
0)
#22500000
r1.192941176470587 R
r1.192941176470587 J
r1.192941176470587 B
r1.192941176470587 :
1(
b10 T
b1111 0
1)
#23000000
0(
0)
#23500000
r1.192470588235292 :
r1.192470588235292 B
r1.192470588235292 J
r1.192470588235292 R
1(
b10 T
b10000 0
1)
#24000000
0(
0)
#24500000
r1.191999999999998 R
r1.191999999999998 J
r1.191999999999998 B
r1.191999999999998 :
1(
b10 T
b10001 0
1)
#25000000
0(
0)
#25500000
r1.191529411764704 :
r1.191529411764704 B
r1.191529411764704 J
r1.191529411764704 R
1(
b10 T
b10010 0
1)
#26000000
0(
0)
#26500000
r1.19105882352941 R
r1.19105882352941 J
r1.19105882352941 B
r1.19105882352941 :
1(
b10 T
b10011 0
1)
#27000000
0(
0)
#27500000
r1.190588235294116 :
r1.190588235294116 B
r1.190588235294116 J
r1.190588235294116 R
1(
b10 T
b10100 0
1)
#28000000
0(
0)
#28500000
r1.190117647058821 R
r1.190117647058821 J
r1.190117647058821 B
r1.190117647058821 :
1(
b10 T
b10101 0
1)
#29000000
0(
0)
#29500000
r1.189647058823527 :
r1.189647058823527 B
r1.189647058823527 J
r1.189647058823527 R
1(
b10 T
b10110 0
1)
#30000000
0(
0)
#30500000
r1.189176470588233 R
r1.189176470588233 J
r1.189176470588233 B
r1.189176470588233 :
1(
b10 T
b10111 0
1)
#31000000
0(
0)
#31500000
r1.188705882352939 :
r1.188705882352939 B
r1.188705882352939 J
r1.188705882352939 R
1(
b10 T
b11000 0
1)
#32000000
0(
0)
#32500000
r1.188235294117644 R
r1.188235294117644 J
r1.188235294117644 B
r1.188235294117644 :
1(
b10 T
b11001 0
1)
#33000000
0(
0)
#33500000
r1.18776470588235 :
r1.18776470588235 B
r1.18776470588235 J
r1.18776470588235 R
1(
b10 T
b11010 0
1)
#34000000
0(
0)
#34500000
r1.187294117647056 R
r1.187294117647056 J
r1.187294117647056 B
r1.187294117647056 :
1(
b10 T
b11011 0
1)
#35000000
0(
0)
#35500000
r1.186823529411762 :
r1.186823529411762 B
r1.186823529411762 J
r1.186823529411762 R
1(
b10 T
b11100 0
1)
#36000000
0(
0)
#36500000
r1.186352941176468 R
r1.186352941176468 J
r1.186352941176468 B
r1.186352941176468 :
1(
b10 T
b11101 0
1)
#37000000
0(
0)
#37500000
r1.185882352941173 :
r1.185882352941173 B
r1.185882352941173 J
r1.185882352941173 R
1(
b10 T
b11110 0
1)
#38000000
0(
0)
#38500000
r1.185411764705879 R
r1.185411764705879 J
r1.185411764705879 B
r1.185411764705879 :
1(
b10 T
b11111 0
1)
#39000000
0(
0)
#39500000
r1.184941176470585 :
r1.184941176470585 B
r1.184941176470585 J
r1.184941176470585 R
1(
b10 T
b100000 0
1)
#40000000
0(
0)
#40500000
r1.184470588235291 R
r1.184470588235291 J
r1.184470588235291 B
r1.184470588235291 :
1(
b10 T
b100001 0
1)
#41000000
0(
0)
#41500000
r1.183999999999996 :
r1.183999999999996 B
r1.183999999999996 J
r1.183999999999996 R
1(
b10 T
b100010 0
1)
#42000000
0(
0)
#42500000
r1.183529411764702 R
r1.183529411764702 J
r1.183529411764702 B
r1.183529411764702 :
1(
b10 T
b100011 0
1)
#43000000
0(
0)
#43500000
r1.183058823529408 :
r1.183058823529408 B
r1.183058823529408 J
r1.183058823529408 R
1(
b10 T
b100100 0
1)
#44000000
0(
0)
#44500000
r1.182588235294114 R
r1.182588235294114 J
r1.182588235294114 B
r1.182588235294114 :
1(
b10 T
b100101 0
1)
#45000000
0(
0)
#45500000
r1.182117647058819 :
r1.182117647058819 B
r1.182117647058819 J
r1.182117647058819 R
1(
b10 T
b100110 0
1)
#46000000
0(
0)
#46500000
r1.181647058823525 R
r1.181647058823525 J
r1.181647058823525 B
r1.181647058823525 :
1(
b10 T
b100111 0
1)
#47000000
0(
0)
#47500000
r1.181176470588231 :
r1.181176470588231 B
r1.181176470588231 J
r1.181176470588231 R
1(
b10 T
b101000 0
1)
#48000000
0(
0)
#48500000
r1.180705882352937 R
r1.180705882352937 J
r1.180705882352937 B
r1.180705882352937 :
1(
b10 T
b101001 0
1)
#49000000
0(
0)
#49500000
r1.180235294117643 :
r1.180235294117643 B
r1.180235294117643 J
r1.180235294117643 R
1(
b10 T
b101010 0
1)
#50000000
0(
0)
#50500000
r1.179764705882348 R
r1.179764705882348 J
r1.179764705882348 B
r1.179764705882348 :
1(
b10 T
b101011 0
1)
#51000000
0(
0)
#51500000
r1.179294117647054 :
r1.179294117647054 B
r1.179294117647054 J
r1.179294117647054 R
1(
b10 T
b101100 0
1)
#52000000
0(
0)
#52500000
r1.17882352941176 R
r1.17882352941176 J
r1.17882352941176 B
r1.17882352941176 :
1(
b10 T
b101101 0
1)
#53000000
0(
0)
#53500000
r1.178352941176466 :
r1.178352941176466 B
r1.178352941176466 J
r1.178352941176466 R
1(
b10 T
b101110 0
1)
#54000000
0(
0)
#54500000
r1.177882352941171 R
r1.177882352941171 J
r1.177882352941171 B
r1.177882352941171 :
1(
b10 T
b101111 0
1)
#55000000
0(
0)
#55500000
r1.177411764705877 :
r1.177411764705877 B
r1.177411764705877 J
r1.177411764705877 R
1(
b10 T
b110000 0
1)
#56000000
0(
0)
#56500000
r1.176941176470583 R
r1.176941176470583 J
r1.176941176470583 B
r1.176941176470583 :
1(
b10 T
b110001 0
1)
#57000000
0(
0)
#57500000
r1.176470588235289 :
r1.176470588235289 B
r1.176470588235289 J
r1.176470588235289 R
1(
b10 T
b110010 0
1)
#58000000
0(
0)
#58500000
r1.175999999999995 R
r1.175999999999995 J
r1.175999999999995 B
r1.175999999999995 :
1(
b10 T
b110011 0
1)
#59000000
0(
0)
#59500000
r1.1755294117647 :
r1.1755294117647 B
r1.1755294117647 J
r1.1755294117647 R
1(
b10 T
b110100 0
1)
#60000000
0(
0)
#60500000
r1.175058823529406 R
r1.175058823529406 J
r1.175058823529406 B
r1.175058823529406 :
1(
b10 T
b110101 0
1)
#61000000
0(
0)
#61500000
r1.174588235294112 :
r1.174588235294112 B
r1.174588235294112 J
r1.174588235294112 R
1(
b10 T
b110110 0
1)
#62000000
0(
0)
#62500000
r1.174117647058818 R
r1.174117647058818 J
r1.174117647058818 B
r1.174117647058818 :
1(
b10 T
b110111 0
1)
#63000000
0(
0)
#63500000
r1.173647058823523 :
r1.173647058823523 B
r1.173647058823523 J
r1.173647058823523 R
1(
b10 T
b111000 0
1)
#64000000
0(
0)
#64500000
r1.173176470588229 R
r1.173176470588229 J
r1.173176470588229 B
r1.173176470588229 :
1(
b10 T
b111001 0
1)
#65000000
0(
0)
#65500000
r1.172705882352935 :
r1.172705882352935 B
r1.172705882352935 J
r1.172705882352935 R
1(
b10 T
b111010 0
1)
#66000000
0(
0)
#66500000
r1.172235294117641 R
r1.172235294117641 J
r1.172235294117641 B
r1.172235294117641 :
1(
b10 T
b111011 0
1)
#67000000
0(
0)
#67500000
r1.171764705882347 :
r1.171764705882347 B
r1.171764705882347 J
r1.171764705882347 R
1(
b10 T
b111100 0
1)
#68000000
0(
0)
#68500000
r1.171294117647052 R
r1.171294117647052 J
r1.171294117647052 B
r1.171294117647052 :
1(
b10 T
b111101 0
1)
#69000000
0(
0)
#69500000
r1.170823529411758 :
r1.170823529411758 B
r1.170823529411758 J
r1.170823529411758 R
1(
b10 T
b111110 0
1)
#70000000
0(
0)
#70500000
r1.170352941176464 R
r1.170352941176464 J
r1.170352941176464 B
r1.170352941176464 :
1(
b10 T
b111111 0
1)
#71000000
0(
0)
#71500000
r1.16988235294117 :
r1.16988235294117 B
r1.16988235294117 J
r1.16988235294117 R
1(
b10 T
b1000000 0
1)
#72000000
0(
0)
#72500000
r1.169411764705875 R
r1.169411764705875 J
r1.169411764705875 B
r1.169411764705875 :
1(
b10 T
b1000001 0
1)
#73000000
0(
0)
#73500000
r1.168941176470581 :
r1.168941176470581 B
r1.168941176470581 J
r1.168941176470581 R
1(
b10 T
b1000010 0
1)
#74000000
0(
0)
#74500000
r1.168470588235287 R
r1.168470588235287 J
r1.168470588235287 B
r1.168470588235287 :
1(
b10 T
b1000011 0
1)
#75000000
0(
0)
#75500000
r1.167999999999993 :
r1.167999999999993 B
r1.167999999999993 J
r1.167999999999993 R
1(
b10 T
b1000100 0
1)
#76000000
0(
0)
#76500000
r1.167529411764699 R
r1.167529411764699 J
r1.167529411764699 B
r1.167529411764699 :
1(
b10 T
b1000101 0
1)
#77000000
0(
0)
#77500000
r1.167058823529404 :
r1.167058823529404 B
r1.167058823529404 J
r1.167058823529404 R
1(
b10 T
b1000110 0
1)
#78000000
0(
0)
#78500000
r1.16658823529411 R
r1.16658823529411 J
r1.16658823529411 B
r1.16658823529411 :
1(
b10 T
b1000111 0
1)
#79000000
0(
0)
#79500000
r1.166117647058816 :
r1.166117647058816 B
r1.166117647058816 J
r1.166117647058816 R
1(
b10 T
b1001000 0
1)
#80000000
0(
0)
#80500000
r1.165647058823522 R
r1.165647058823522 J
r1.165647058823522 B
r1.165647058823522 :
1(
b10 T
b1001001 0
1)
#81000000
0(
0)
#81500000
r1.165176470588227 :
r1.165176470588227 B
r1.165176470588227 J
r1.165176470588227 R
1(
b10 T
b1001010 0
1)
#82000000
0(
0)
#82500000
r1.164705882352933 R
r1.164705882352933 J
r1.164705882352933 B
r1.164705882352933 :
1(
b10 T
b1001011 0
1)
#83000000
0(
0)
#83500000
r1.164235294117639 :
r1.164235294117639 B
r1.164235294117639 J
r1.164235294117639 R
1(
b10 T
b1001100 0
1)
#84000000
0(
0)
#84500000
r1.163764705882345 R
r1.163764705882345 J
r1.163764705882345 B
r1.163764705882345 :
1(
b10 T
b1001101 0
1)
#85000000
0(
0)
#85500000
r1.163294117647051 :
r1.163294117647051 B
r1.163294117647051 J
r1.163294117647051 R
1(
b10 T
b1001110 0
1)
#86000000
0(
0)
#86500000
r1.162823529411756 R
r1.162823529411756 J
r1.162823529411756 B
r1.162823529411756 :
1(
b10 T
b1001111 0
1)
#87000000
0(
0)
#87500000
r1.162352941176462 :
r1.162352941176462 B
r1.162352941176462 J
r1.162352941176462 R
1(
b10 T
b1010000 0
1)
#88000000
0(
0)
#88500000
r1.161882352941168 R
r1.161882352941168 J
r1.161882352941168 B
r1.161882352941168 :
1(
b10 T
b1010001 0
1)
#89000000
0(
0)
#89500000
r1.161411764705874 :
r1.161411764705874 B
r1.161411764705874 J
r1.161411764705874 R
1(
b10 T
b1010010 0
1)
#90000000
0(
0)
#90500000
r1.160941176470579 R
r1.160941176470579 J
r1.160941176470579 B
r1.160941176470579 :
1(
b10 T
b1010011 0
1)
#91000000
0(
0)
#91500000
r1.160470588235285 :
r1.160470588235285 B
r1.160470588235285 J
r1.160470588235285 R
1(
b10 T
b1010100 0
1)
#92000000
0(
0)
#92500000
r1.159999999999991 R
r1.159999999999991 J
r1.159999999999991 B
r1.159999999999991 :
1(
b10 T
b1010101 0
1)
#93000000
0(
0)
#93500000
r1.159529411764697 :
r1.159529411764697 B
r1.159529411764697 J
r1.159529411764697 R
1(
b10 T
b1010110 0
1)
#94000000
0(
0)
#94500000
r1.159058823529403 R
r1.159058823529403 J
r1.159058823529403 B
r1.159058823529403 :
1(
b10 T
b1010111 0
1)
#95000000
0(
0)
#95500000
r1.158588235294108 :
r1.158588235294108 B
r1.158588235294108 J
r1.158588235294108 R
1(
b10 T
b1011000 0
1)
#96000000
0(
0)
#96500000
r1.158117647058814 R
r1.158117647058814 J
r1.158117647058814 B
r1.158117647058814 :
1(
b10 T
b1011001 0
1)
#97000000
0(
0)
#97500000
r1.15764705882352 :
r1.15764705882352 B
r1.15764705882352 J
r1.15764705882352 R
1(
b10 T
b1011010 0
1)
#98000000
0(
0)
#98500000
r1.157176470588226 R
r1.157176470588226 J
r1.157176470588226 B
r1.157176470588226 :
1(
b10 T
b1011011 0
1)
#99000000
0(
0)
#99500000
r1.156705882352931 :
r1.156705882352931 B
r1.156705882352931 J
r1.156705882352931 R
1(
b10 T
b1011100 0
1)
#100000000
0(
0)
#100500000
r1.156235294117637 R
r1.156235294117637 J
r1.156235294117637 B
r1.156235294117637 :
1(
b10 T
b1011101 0
1)
#101000000
0(
0)
#101500000
r1.155764705882343 :
r1.155764705882343 B
r1.155764705882343 J
r1.155764705882343 R
1(
b10 T
b1011110 0
1)
#102000000
0(
0)
#102500000
r1.155294117647049 R
r1.155294117647049 J
r1.155294117647049 B
r1.155294117647049 :
1(
b10 T
b1011111 0
1)
#103000000
0(
0)
#103500000
r1.154823529411755 :
r1.154823529411755 B
r1.154823529411755 J
r1.154823529411755 R
1(
b10 T
b1100000 0
1)
#104000000
0(
0)
#104500000
r1.15435294117646 R
r1.15435294117646 J
r1.15435294117646 B
r1.15435294117646 :
1(
b10 T
b1100001 0
1)
#105000000
0(
0)
#105500000
r1.153882352941166 :
r1.153882352941166 B
r1.153882352941166 J
r1.153882352941166 R
1(
b10 T
b1100010 0
1)
#106000000
0(
0)
#106500000
r1.153411764705872 R
r1.153411764705872 J
r1.153411764705872 B
r1.153411764705872 :
1(
b10 T
b1100011 0
1)
#107000000
0(
0)
#107500000
r1.152941176470578 :
r1.152941176470578 B
r1.152941176470578 J
r1.152941176470578 R
1(
b10 T
b1100100 0
1)
#108000000
0(
0)
#108500000
r1.152470588235283 R
r1.152470588235283 J
r1.152470588235283 B
r1.152470588235283 :
1(
b10 T
b1100101 0
1)
#109000000
0(
0)
#109500000
r1.151999999999989 :
r1.151999999999989 B
r1.151999999999989 J
r1.151999999999989 R
1(
b10 T
b1100110 0
1)
#110000000
0(
0)
#110500000
r1.151529411764695 R
r1.151529411764695 J
r1.151529411764695 B
r1.151529411764695 :
1(
b10 T
b1100111 0
1)
#111000000
0(
0)
#111500000
r1.151058823529401 :
r1.151058823529401 B
r1.151058823529401 J
r1.151058823529401 R
1(
b10 T
b1101000 0
1)
#112000000
0(
0)
#112500000
r1.150588235294107 R
r1.150588235294107 J
r1.150588235294107 B
r1.150588235294107 :
1(
b10 T
b1101001 0
1)
#113000000
0(
0)
#113500000
r1.150117647058812 :
r1.150117647058812 B
r1.150117647058812 J
r1.150117647058812 R
1(
b10 T
b1101010 0
1)
#114000000
0(
0)
#114500000
r1.149647058823518 R
r1.149647058823518 J
r1.149647058823518 B
r1.149647058823518 :
1(
b10 T
b1101011 0
1)
#115000000
0(
0)
#115500000
r1.149176470588224 :
r1.149176470588224 B
r1.149176470588224 J
r1.149176470588224 R
1(
b10 T
b1101100 0
1)
#116000000
0(
0)
#116500000
r1.14870588235293 R
r1.14870588235293 J
r1.14870588235293 B
r1.14870588235293 :
1(
b10 T
b1101101 0
1)
#117000000
0(
0)
#117500000
r1.148235294117635 :
r1.148235294117635 B
r1.148235294117635 J
r1.148235294117635 R
1(
b10 T
b1101110 0
1)
#118000000
0(
0)
#118500000
r1.147764705882341 R
r1.147764705882341 J
r1.147764705882341 B
r1.147764705882341 :
1(
b10 T
b1101111 0
1)
#119000000
0(
0)
#119500000
r1.147294117647047 :
r1.147294117647047 B
r1.147294117647047 J
r1.147294117647047 R
1(
b10 T
b1110000 0
1)
#120000000
0(
0)
#120500000
r1.146823529411753 R
r1.146823529411753 J
r1.146823529411753 B
r1.146823529411753 :
1(
b10 T
b1110001 0
1)
#121000000
0(
0)
#121500000
r1.146352941176459 :
r1.146352941176459 B
r1.146352941176459 J
r1.146352941176459 R
1(
b10 T
b1110010 0
1)
#122000000
0(
0)
#122500000
r1.145882352941164 R
r1.145882352941164 J
r1.145882352941164 B
r1.145882352941164 :
1(
b10 T
b1110011 0
1)
#123000000
0(
0)
#123500000
r1.14541176470587 :
r1.14541176470587 B
r1.14541176470587 J
r1.14541176470587 R
1(
b10 T
b1110100 0
1)
#124000000
0(
0)
#124500000
r1.144941176470576 R
r1.144941176470576 J
r1.144941176470576 B
r1.144941176470576 :
1(
b10 T
b1110101 0
1)
#125000000
0(
0)
#125500000
r1.144470588235282 :
r1.144470588235282 B
r1.144470588235282 J
r1.144470588235282 R
1(
b10 T
b1110110 0
1)
#126000000
0(
0)
#126500000
r1.143999999999987 R
r1.143999999999987 J
r1.143999999999987 B
r1.143999999999987 :
1(
b10 T
b1110111 0
1)
#127000000
0(
0)
#127500000
r1.143529411764693 :
r1.143529411764693 B
r1.143529411764693 J
r1.143529411764693 R
1(
b10 T
b1111000 0
1)
#128000000
0(
0)
#128500000
r1.143058823529399 R
r1.143058823529399 J
r1.143058823529399 B
r1.143058823529399 :
1(
b10 T
b1111001 0
1)
#129000000
0(
0)
#129500000
r1.142588235294105 :
r1.142588235294105 B
r1.142588235294105 J
r1.142588235294105 R
1(
b10 T
b1111010 0
1)
#130000000
0(
0)
#130500000
r1.142117647058811 R
r1.142117647058811 J
r1.142117647058811 B
r1.142117647058811 :
1(
b10 T
b1111011 0
1)
#131000000
0(
0)
#131500000
r1.141647058823516 :
r1.141647058823516 B
r1.141647058823516 J
r1.141647058823516 R
1(
b10 T
b1111100 0
1)
#132000000
0(
0)
#132500000
r1.141176470588222 R
r1.141176470588222 J
r1.141176470588222 B
r1.141176470588222 :
1(
b10 T
b1111101 0
1)
#133000000
0(
0)
#133500000
r1.140705882352928 :
r1.140705882352928 B
r1.140705882352928 J
r1.140705882352928 R
1(
b10 T
b1111110 0
1)
#134000000
0(
0)
#134500000
r1.140235294117634 R
r1.140235294117634 J
r1.140235294117634 B
r1.140235294117634 :
1(
b10 T
b1111111 0
1)
#135000000
0(
0)
#135500000
r1.139764705882339 :
r1.139764705882339 B
r1.139764705882339 J
r1.139764705882339 R
1(
b10 T
b10000000 0
1)
#136000000
0(
0)
#136500000
r1.139294117647045 R
r1.139294117647045 J
r1.139294117647045 B
r1.139294117647045 :
1(
b10 T
b10000001 0
1)
#137000000
0(
0)
#137500000
r1.138823529411751 :
r1.138823529411751 B
r1.138823529411751 J
r1.138823529411751 R
1(
b10 T
b10000010 0
1)
#138000000
0(
0)
#138500000
r1.138352941176457 R
r1.138352941176457 J
r1.138352941176457 B
r1.138352941176457 :
1(
b10 T
b10000011 0
1)
#139000000
0(
0)
#139500000
r1.137882352941163 :
r1.137882352941163 B
r1.137882352941163 J
r1.137882352941163 R
1(
b10 T
b10000100 0
1)
#140000000
0(
0)
#140500000
r1.137411764705868 R
r1.137411764705868 J
r1.137411764705868 B
r1.137411764705868 :
1(
b10 T
b10000101 0
1)
#141000000
0(
0)
#141500000
r1.136941176470574 :
r1.136941176470574 B
r1.136941176470574 J
r1.136941176470574 R
1(
b10 T
b10000110 0
1)
#142000000
0(
0)
#142500000
r1.13647058823528 R
r1.13647058823528 J
r1.13647058823528 B
r1.13647058823528 :
1(
b10 T
b10000111 0
1)
#143000000
0(
0)
#143500000
r1.135999999999986 :
r1.135999999999986 B
r1.135999999999986 J
r1.135999999999986 R
1(
b10 T
b10001000 0
1)
#144000000
0(
0)
#144500000
r1.135529411764691 R
r1.135529411764691 J
r1.135529411764691 B
r1.135529411764691 :
1(
b10 T
b10001001 0
1)
#145000000
0(
0)
#145500000
r1.135058823529397 :
r1.135058823529397 B
r1.135058823529397 J
r1.135058823529397 R
1(
b10 T
b10001010 0
1)
#146000000
0(
0)
#146500000
r1.134588235294103 R
r1.134588235294103 J
r1.134588235294103 B
r1.134588235294103 :
1(
b10 T
b10001011 0
1)
#147000000
0(
0)
#147500000
r1.134117647058809 :
r1.134117647058809 B
r1.134117647058809 J
r1.134117647058809 R
1(
b10 T
b10001100 0
1)
#148000000
0(
0)
#148500000
r1.133647058823515 R
r1.133647058823515 J
r1.133647058823515 B
r1.133647058823515 :
1(
b10 T
b10001101 0
1)
#149000000
0(
0)
#149500000
r1.13317647058822 :
r1.13317647058822 B
r1.13317647058822 J
r1.13317647058822 R
1(
b10 T
b10001110 0
1)
#150000000
0(
0)
#150500000
r1.132705882352926 R
r1.132705882352926 J
r1.132705882352926 B
r1.132705882352926 :
1(
b10 T
b10001111 0
1)
#151000000
0(
0)
#151500000
r1.132235294117632 :
r1.132235294117632 B
r1.132235294117632 J
r1.132235294117632 R
1(
b10 T
b10010000 0
1)
#152000000
0(
0)
#152500000
r1.131764705882338 R
r1.131764705882338 J
r1.131764705882338 B
r1.131764705882338 :
1(
b10 T
b10010001 0
1)
#153000000
0(
0)
#153500000
r1.131294117647043 :
r1.131294117647043 B
r1.131294117647043 J
r1.131294117647043 R
1(
b10 T
b10010010 0
1)
#154000000
0(
0)
#154500000
r1.130823529411749 R
r1.130823529411749 J
r1.130823529411749 B
r1.130823529411749 :
1(
b10 T
b10010011 0
1)
#155000000
0(
0)
#155500000
r1.130352941176455 :
r1.130352941176455 B
r1.130352941176455 J
r1.130352941176455 R
1(
b10 T
b10010100 0
1)
#156000000
0(
0)
#156500000
r1.129882352941161 R
r1.129882352941161 J
r1.129882352941161 B
r1.129882352941161 :
1(
b10 T
b10010101 0
1)
#157000000
0(
0)
#157500000
r1.129411764705867 :
r1.129411764705867 B
r1.129411764705867 J
r1.129411764705867 R
1(
b10 T
b10010110 0
1)
#158000000
0(
0)
#158500000
r1.128941176470572 R
r1.128941176470572 J
r1.128941176470572 B
r1.128941176470572 :
1(
b10 T
b10010111 0
1)
#159000000
0(
0)
#159500000
r1.128470588235278 :
r1.128470588235278 B
r1.128470588235278 J
r1.128470588235278 R
1(
b10 T
b10011000 0
1)
#160000000
0(
0)
#160500000
r1.127999999999984 R
r1.127999999999984 J
r1.127999999999984 B
r1.127999999999984 :
1(
b10 T
b10011001 0
1)
#161000000
0(
0)
#161500000
r1.12752941176469 :
r1.12752941176469 B
r1.12752941176469 J
r1.12752941176469 R
1(
b10 T
b10011010 0
1)
#162000000
0(
0)
#162500000
r1.127058823529395 R
r1.127058823529395 J
r1.127058823529395 B
r1.127058823529395 :
1(
b10 T
b10011011 0
1)
#163000000
0(
0)
#163500000
r1.126588235294101 :
r1.126588235294101 B
r1.126588235294101 J
r1.126588235294101 R
1(
b10 T
b10011100 0
1)
#164000000
0(
0)
#164500000
r1.126117647058807 R
r1.126117647058807 J
r1.126117647058807 B
r1.126117647058807 :
1(
b10 T
b10011101 0
1)
#165000000
0(
0)
#165500000
r1.125647058823513 :
r1.125647058823513 B
r1.125647058823513 J
r1.125647058823513 R
1(
b10 T
b10011110 0
1)
#166000000
0(
0)
#166500000
r1.125176470588219 R
r1.125176470588219 J
r1.125176470588219 B
r1.125176470588219 :
1(
b10 T
b10011111 0
1)
#167000000
0(
0)
#167500000
r1.124705882352924 :
r1.124705882352924 B
r1.124705882352924 J
r1.124705882352924 R
1(
b10 T
b10100000 0
1)
#168000000
0(
0)
#168500000
r1.12423529411763 R
r1.12423529411763 J
r1.12423529411763 B
r1.12423529411763 :
1(
b10 T
b10100001 0
1)
#169000000
0(
0)
#169500000
r1.123764705882336 :
r1.123764705882336 B
r1.123764705882336 J
r1.123764705882336 R
1(
b10 T
b10100010 0
1)
#170000000
0(
0)
#170500000
r1.123294117647042 R
r1.123294117647042 J
r1.123294117647042 B
r1.123294117647042 :
1(
b10 T
b10100011 0
1)
#171000000
0(
0)
